{
    "get_alerts": {
        "count": 443,
        "next": "https://api.zerofox.com/1.1/alerts/?limit=1&offset=1",
        "previous": null,
        "page_size": 1,
        "num_pages": 443,
        "alerts": [
            {
                "alert_type": "search query",
                "logs": [
                    {
                        "id": 825650135,
                        "timestamp": "2025-03-31T19:52:26+00:00",
                        "actor": "ZeroFox Platform Specialist",
                        "subject": "",
                        "action": "modify tags",
                        "detail": "Added: (MacbookPro)"
                    }
                ],
                "offending_content_url": "hxxp://stirk.net?entity=560639",
                "asset_term": null,
                "assignee": "",
                "entity": {
                    "id": 560639,
                    "name": "Web Domains",
                    "image": "https://cdn.zerofox.com/media/26plvcxjzbplb99qxc663o6k8dgltg9nr.png",
                    "labels": [
                        {
                            "id": 1639873,
                            "name": "Stark"
                        }
                    ],
                    "entity_group": {
                        "id": 4636,
                        "name": "Default"
                    }
                },
                "entity_term": null,
                "content_created_at": "2017-01-10T11:00:00+00:00",
                "id": 422605812,
                "severity": 1,
                "perpetrator": {
                    "name": "Concealed",
                    "display_name": "Concealed",
                    "id": 880157040,
                    "url": "hxxp://stirk.net?entity=560639",
                    "content": "Variation of protected domain stark.com found: stirk.net",
                    "type": "page",
                    "timestamp": "2017-01-10T11:00:00+00:00",
                    "network": "domains"
                },
                "rule_group_id": 457,
                "asset": {
                    "id": 560639,
                    "name": "Web Domains",
                    "image": "example_image.png",
                    "labels": [
                        {
                            "id": 1639873,
                            "name": "Stark"
                        }
                    ],
                    "entity_group": {
                        "id": 4636,
                        "name": "Default"
                    }
                },
                "metadata": "{}",
                "status": "Open",
                "timestamp": "2025-03-31T19:52:25+00:00",
                "rule_name": "Advanced Domain Analysis - Typosquat Match",
                "last_modified": "2025-03-31T19:52:26Z",
                "protected_locations": null,
                "darkweb_term": null,
                "business_network": null,
                "reviewed": false,
                "escalated": false,
                "network": "domains",
                "protected_social_object": null,
                "notes": "",
                "reviews": [],
                "rule_id": 38160,
                "entity_account": null,
                "entity_email_receiver_id": null,
                "tags": [
                    "MacbookPro"
                ],
                "scan_data": {}
            }
        ]
    },
    "invalid_token": {
        "detail": "Invalid token."
    },
    "invalid_alert": {
        "detail": "You do not have permission to perform this action."
    },
    "invalid_close_alert": {
        "error": "Invalid permissions"
    }
}